# panasonic pin	# multilayer	# layer	# readout	# strip
2	0	0	Y	256
3	0	0	Y	255
4	0	0	Y	254
5	0	0	Y	253
6	0	0	Y	252
7	0	0	Y	251
8	0	0	Y	250
9	0	0	Y	249
10	0	0	Y	248
11	0	0	Y	247
12	0	0	Y	246
13	0	0	Y	245
14	0	0	Y	244
15	0	0	Y	243
16	0	0	Y	242
17	0	0	Y	241
18	0	0	Y	240
19	0	0	Y	239
20	0	0	Y	238
21	0	0	Y	237
22	0	0	Y	236
23	0	0	Y	235
24	0	0	Y	234
25	0	0	Y	233
26	0	0	Y	232
27	0	0	Y	231
28	0	0	Y	230
29	0	0	Y	229
32	0	0	Y	228
31	0	0	Y	227
30	0	0	Y	226
33	0	0	Y	225
34	0	0	Y	224
35	0	0	Y	223
36	0	0	Y	222
37	0	0	Y	221
38	0	0	Y	220
39	0	0	Y	219
40	0	0	Y	218
41	0	0	Y	217
42	0	0	Y	216
43	0	0	Y	215
44	0	0	Y	214
45	0	0	Y	213
46	0	0	Y	212
47	0	0	Y	211
48	0	0	Y	210
49	0	0	Y	209
50	0	0	Y	208
51	0	0	Y	207
52	0	0	Y	206
53	0	0	Y	205
54	0	0	Y	204
55	0	0	Y	203
56	0	0	Y	202
57	0	0	Y	201
58	0	0	Y	200
59	0	0	Y	199
60	0	0	Y	198
61	0	0	Y	197
62	0	0	Y	196
63	0	0	Y	195
64	0	0	Y	194
65	0	0	Y	193
66	0	0	Y	192
67	0	0	Y	191
67	0	0	Y	189
68	0	0	Y	190
70	0	0	Y	188
71	0	0	Y	187
72	0	0	Y	186
73	0	0	Y	185
74	0	0	Y	184
75	0	0	Y	183
76	0	0	Y	182
77	0	0	Y	181
78	0	0	Y	180
79	0	0	Y	179
80	0	0	Y	178
81	0	0	Y	177
82	0	0	Y	176
83	0	0	Y	175
84	0	0	Y	174
85	0	0	Y	173
86	0	0	Y	172
87	0	0	Y	171
88	0	0	Y	170
89	0	0	Y	169
90	0	0	Y	168
91	0	0	Y	167
92	0	0	Y	166
93	0	0	Y	165
94	0	0	Y	164
95	0	0	Y	163
96	0	0	Y	162
97	0	0	Y	161
98	0	0	Y	160
99	0	0	Y	159
100	0	0	Y	158
101	0	0	Y	157
102	0	0	Y	156
103	0	0	Y	155
104	0	0	Y	154
105	0	0	Y	153
106	0	0	Y	152
107	0	0	Y	151
108	0	0	Y	150
109	0	0	Y	149
112	0	0	Y	148
111	0	0	Y	147
110	0	0	Y	146
113	0	0	Y	145
116	0	0	Y	144
115	0	0	Y	143
114	0	0	Y	142
117	0	0	Y	141
120	0	0	Y	140
119	0	0	Y	139
118	0	0	Y	138
121	0	0	Y	137
124	0	0	Y	136
123	0	0	Y	135
122	0	0	Y	134
125	0	0	Y	133
128	0	0	Y	132
127	0	0	Y	131
126	0	0	Y	130
129	0	0	Y	129
